{
    "phonebook": [
        {
            "title": "Mr",
            "firstname": "Basheer",
            "lastname": "Athmannil",
            "primaryemail": "Basheer@hotmail.com",
            "secondaryemail": "hello@Basheer.com",
            "contacts": [
                {"phone": "07875 506 426"},
                {"phone": "+91 9895 319991"},
                {"phone": "+44 7875 506 426"}
            ]
        },{
            "title": "Mr",
            "firstname": "Kallayi",
            "lastname": "Konu",
            "primaryemail": "Kallayi@konu.com",
            "secondaryemail": "konu@Kallayi.com",
            "contacts": [
                {"phone": "+447875506426"}
            ]

        }
    ]
}